…
## Find data

The following code builds a `manifest` that can be used to guide the
download of raw data. Here, filtering finds gene expression files
quantified as raw counts using `STAR` from ovarian cancer patients.

``` r
ge_manifest <- files() |>
    filter( cases.project.project_id == 'TCGA-OV') |>
    filter( type == 'gene_expression' ) |>
    filter( analysis.workflow_type == 'STAR - Counts') |>
    manifest()
ge_manifest
#> # A tibble: 762 × 5
#>    id                                   filename              md5     size state
#>  * <chr>                                <chr>                 <chr>  <dbl> <chr>
#>  1 7c69529f-2273-4dc4-b213-e84924d78bea d6472bd0-b4e2-4ed1-a… 19d5… 4.25e6 rele…
#>  2 0eff4634-f8c4-4db9-8a7c-331b21689bae 42165baf-b32c-4fc4-8… d89d… 4.26e6 rele…
#>  3 7d74b4c5-6391-4b3e-95a3-020ea0869e86 accf08d4-a784-4908-8… fb83… 3.11e6 rele…
#>  4 dc2aeea4-3cd0-4623-92f4-bbbc962851cc 8ab508b9-2993-4e66-b… 2623… 4.61e6 rele…
#>  5 0cf852be-d2e3-4fde-bba8-c93efae2961a 93831282-1dd1-49a3-a… 0507… 4.27e6 rele…
#>  6 d33ad23e-2413-419c-8b0b-93ed00583033 bffe7439-0f9b-422f-b… 1bba… 4.47e6 rele…
#>  7 d4cc00b7-5a9a-4efa-8334-708dbefe76fa fb8ee269-a38b-47ef-b… 2044… 4.25e6 rele…
#>  8 1b45742e-4c91-4b8f-8a2b-f144479557a4 cd96deaf-e1fa-40b4-8… 92d5… 3.80e6 rele…
#>  9 a1ea0a4b-cd16-4436-9e9f-dd7e718ee858 fb8ee269-a38b-47ef-b… 5980… 3.46e6 rele…
#> 10 fbeb5543-22e0-49e0-a77c-f050e748315c 09afd98b-1da0-4de9-b… 1438… 4.23e6 rele…
#> # … with 752 more rows
```
…
