Questions and answers from over the years • GenomicDataCommons
…
library(GenomicDataCommons)

cases() %>% 
  GenomicDataCommons::filter(~ project.program.name=='TCGA' & 
                               files.experimental_strategy=='RNA-Seq') %>% 
  facet(c("files.created_datetime")) %>% 
  aggregations() %>% 
  .[[1]] %>% 
  as_tibble() %>%
  dplyr::arrange(dplyr::desc(key))

## # A tibble: 200 × 2
##    doc_count key                             
##        <int> <chr>                           
##  1       362 2021-04-05t12:48:23.926301-05:00
##  2       438 2021-04-05t08:30:00.775501-05:00
##  3       374 2021-04-05t08:29:15.674486-05:00
##  4       305 2021-04-05t08:26:08.920845-05:00
##  5       349 2021-04-05t08:22:48.913195-05:00
##  6       351 2021-04-05t08:21:59.240799-05:00
##  7       269 2021-04-05t08:21:27.725962-05:00
##  8       325 2021-04-05t08:20:56.849817-05:00
##  9       428 2021-04-05t08:20:25.746896-05:00
## 10       214 2021-04-05t08:19:48.312949-05:00
## # … with 190 more rows
…
